// Jest Snapshot v1, https://goo.gl/fbAQLP

exports[`HomePage component should render correctly with props 1`] = `
ShallowWrapper {
  Symbol(enzyme.__root__): [Circular],
  Symbol(enzyme.__unrendered__): <HomePage
    callProvider={[MockFunction]}
    user={
      Object {
        "loading": false,
      }
    }
  />,
  Symbol(enzyme.__renderer__): Object {
    "batchedUpdates": [Function],
    "checkPropTypes": [Function],
    "getNode": [Function],
    "render": [Function],
    "simulateError": [Function],
    "simulateEvent": [Function],
    "unmount": [Function],
  },
  Symbol(enzyme.__node__): Object {
    "instance": null,
    "key": undefined,
    "nodeType": "host",
    "props": Object {
      "children": Array [
        <div
          className="content"
        >
          <h1
            className="title"
          >
            Scratcha.
          </h1>
          <h3
            className="subtitle"
          >
            Ravivez vos souvenirs en créant votre carte de voyage
          </h3>
          <ForwardRef
            to="/studio"
          >
            <Button
              classname="button"
              displayArrow={true}
              text="Créer ma carte"
            />
          </ForwardRef>
        </div>,
        <img
          alt="bali"
          className="background"
          src="bali.png"
        />,
      ],
      "className": "container",
    },
    "ref": null,
    "rendered": Array [
      Object {
        "instance": null,
        "key": undefined,
        "nodeType": "host",
        "props": Object {
          "children": Array [
            <h1
              className="title"
            >
              Scratcha.
            </h1>,
            <h3
              className="subtitle"
            >
              Ravivez vos souvenirs en créant votre carte de voyage
            </h3>,
            <ForwardRef
              to="/studio"
            >
              <Button
                classname="button"
                displayArrow={true}
                text="Créer ma carte"
              />
            </ForwardRef>,
          ],
          "className": "content",
        },
        "ref": null,
        "rendered": Array [
          Object {
            "instance": null,
            "key": undefined,
            "nodeType": "host",
            "props": Object {
              "children": "Scratcha.",
              "className": "title",
            },
            "ref": null,
            "rendered": "Scratcha.",
            "type": "h1",
          },
          Object {
            "instance": null,
            "key": undefined,
            "nodeType": "host",
            "props": Object {
              "children": "Ravivez vos souvenirs en créant votre carte de voyage",
              "className": "subtitle",
            },
            "ref": null,
            "rendered": "Ravivez vos souvenirs en créant votre carte de voyage",
            "type": "h3",
          },
          Object {
            "instance": null,
            "key": undefined,
            "nodeType": "function",
            "props": Object {
              "children": <Button
                classname="button"
                displayArrow={true}
                text="Créer ma carte"
              />,
              "to": "/studio",
            },
            "ref": null,
            "rendered": Object {
              "instance": null,
              "key": undefined,
              "nodeType": "function",
              "props": Object {
                "classname": "button",
                "displayArrow": true,
                "text": "Créer ma carte",
              },
              "ref": null,
              "rendered": null,
              "type": [Function],
            },
            "type": Object {
              "$$typeof": Symbol(react.forward_ref),
              "displayName": "Link",
              "propTypes": Object {
                "innerRef": [Function],
                "onClick": [Function],
                "replace": [Function],
                "target": [Function],
                "to": [Function],
              },
              "render": [Function],
            },
          },
        ],
        "type": "div",
      },
      Object {
        "instance": null,
        "key": undefined,
        "nodeType": "host",
        "props": Object {
          "alt": "bali",
          "className": "background",
          "src": "bali.png",
        },
        "ref": null,
        "rendered": null,
        "type": "img",
      },
    ],
    "type": "div",
  },
  Symbol(enzyme.__nodes__): Array [
    Object {
      "instance": null,
      "key": undefined,
      "nodeType": "host",
      "props": Object {
        "children": Array [
          <div
            className="content"
          >
            <h1
              className="title"
            >
              Scratcha.
            </h1>
            <h3
              className="subtitle"
            >
              Ravivez vos souvenirs en créant votre carte de voyage
            </h3>
            <ForwardRef
              to="/studio"
            >
              <Button
                classname="button"
                displayArrow={true}
                text="Créer ma carte"
              />
            </ForwardRef>
          </div>,
          <img
            alt="bali"
            className="background"
            src="bali.png"
          />,
        ],
        "className": "container",
      },
      "ref": null,
      "rendered": Array [
        Object {
          "instance": null,
          "key": undefined,
          "nodeType": "host",
          "props": Object {
            "children": Array [
              <h1
                className="title"
              >
                Scratcha.
              </h1>,
              <h3
                className="subtitle"
              >
                Ravivez vos souvenirs en créant votre carte de voyage
              </h3>,
              <ForwardRef
                to="/studio"
              >
                <Button
                  classname="button"
                  displayArrow={true}
                  text="Créer ma carte"
                />
              </ForwardRef>,
            ],
            "className": "content",
          },
          "ref": null,
          "rendered": Array [
            Object {
              "instance": null,
              "key": undefined,
              "nodeType": "host",
              "props": Object {
                "children": "Scratcha.",
                "className": "title",
              },
              "ref": null,
              "rendered": "Scratcha.",
              "type": "h1",
            },
            Object {
              "instance": null,
              "key": undefined,
              "nodeType": "host",
              "props": Object {
                "children": "Ravivez vos souvenirs en créant votre carte de voyage",
                "className": "subtitle",
              },
              "ref": null,
              "rendered": "Ravivez vos souvenirs en créant votre carte de voyage",
              "type": "h3",
            },
            Object {
              "instance": null,
              "key": undefined,
              "nodeType": "function",
              "props": Object {
                "children": <Button
                  classname="button"
                  displayArrow={true}
                  text="Créer ma carte"
                />,
                "to": "/studio",
              },
              "ref": null,
              "rendered": Object {
                "instance": null,
                "key": undefined,
                "nodeType": "function",
                "props": Object {
                  "classname": "button",
                  "displayArrow": true,
                  "text": "Créer ma carte",
                },
                "ref": null,
                "rendered": null,
                "type": [Function],
              },
              "type": Object {
                "$$typeof": Symbol(react.forward_ref),
                "displayName": "Link",
                "propTypes": Object {
                  "innerRef": [Function],
                  "onClick": [Function],
                  "replace": [Function],
                  "target": [Function],
                  "to": [Function],
                },
                "render": [Function],
              },
            },
          ],
          "type": "div",
        },
        Object {
          "instance": null,
          "key": undefined,
          "nodeType": "host",
          "props": Object {
            "alt": "bali",
            "className": "background",
            "src": "bali.png",
          },
          "ref": null,
          "rendered": null,
          "type": "img",
        },
      ],
      "type": "div",
    },
  ],
  Symbol(enzyme.__options__): Object {
    "adapter": ReactSixteenAdapter {
      "options": Object {
        "enableComponentDidUpdateOnSetState": true,
        "legacyContextMode": "parent",
        "lifecycles": Object {
          "componentDidUpdate": Object {
            "onSetState": true,
          },
          "getChildContext": Object {
            "calledByRenderer": false,
          },
          "getDerivedStateFromError": true,
          "getDerivedStateFromProps": Object {
            "hasShouldComponentUpdateBug": false,
          },
          "getSnapshotBeforeUpdate": true,
          "setState": Object {
            "skipsComponentDidUpdateOnNullish": true,
          },
        },
      },
    },
    Symbol(enzyme.__providerValues__): undefined,
  },
  Symbol(enzyme.__providerValues__): Map {},
}
`;
